{
  "log" : {
    "version" : "1.2",
    "pages" : [ ],
    "entries" : [ {
      "startedDateTime" : "2024-05-30T15:26:03.181Z",
      "request" : {
        "method" : "GET",
        "url" : "https://pokeapi.co/api/v2/pokemon?limit=10",
        "httpVersion" : "",
        "cookies" : [ ],
        "headers" : [ ],
        "queryString" : [ {
          "name" : "limit",
          "value" : "10"
        } ],
        "headersSize" : 0,
        "bodySize" : 0,
        "comment" : ""
      },
      "response" : {
        "status" : 200,
        "statusText" : "",
        "httpVersion" : "",
        "cookies" : [ ],
        "headers" : [ {
          "name" : "Server",
          "value" : "cloudflare"
        }, {
          "name" : "function-execution-id",
          "value" : "336jt1yoxqqo"
        }, {
          "name" : "vary",
          "value" : "Accept-Encoding,cookie,need-authorization, x-fh-requested-host, accept-encoding"
        }, {
          "name" : "x-served-by",
          "value" : "cache-mia-kmia1760022-MIA"
        }, {
          "name" : "x-cache-hits",
          "value" : "1"
        }, {
          "name" : "Report-To",
          "value" : "{\"endpoints\":[{\"url\":\"https:\\/\\/a.nel.cloudflare.com\\/report\\/v4?s=7K0FHa53%2FLCh7MERbIPeNg1SlAYL2%2F1%2F%2BVGVQab02B93ycqsNo2OSe3MysTEzMnm%2Br5Do6oRijoD3ULyGbRhmAYi982Tvq%2B9SpgIP49fA2ub%2BwVjsmtAGTV1oLpz\"}],\"group\":\"cf-nel\",\"max_age\":604800}"
        }, {
          "name" : "x-cloud-trace-context",
          "value" : "c92061aa949fc9189c27bb05b3af8ba6"
        }, {
          "name" : "x-powered-by",
          "value" : "Express"
        }, {
          "name" : "#status#",
          "value" : "HTTP/1.1 200 OK"
        }, {
          "name" : "Age",
          "value" : "52328"
        }, {
          "name" : "Content-Type",
          "value" : "application/json; charset=utf-8"
        }, {
          "name" : "CF-RAY",
          "value" : "88bfbd8cc9c68500-HKG"
        }, {
          "name" : "Connection",
          "value" : "keep-alive"
        }, {
          "name" : "Date",
          "value" : "Thu, 30 May 2024 15:26:04 GMT"
        }, {
          "name" : "strict-transport-security",
          "value" : "max-age=31556926"
        }, {
          "name" : "x-orig-accept-language",
          "value" : "en-US,en;q=0.9"
        }, {
          "name" : "access-control-allow-origin",
          "value" : "*"
        }, {
          "name" : "Accept-Ranges",
          "value" : "bytes"
        }, {
          "name" : "CF-Cache-Status",
          "value" : "HIT"
        }, {
          "name" : "Cache-Control",
          "value" : "public, max-age=86400, s-maxage=86400"
        }, {
          "name" : "NEL",
          "value" : "{\"success_fraction\":0,\"report_to\":\"cf-nel\",\"max_age\":604800}"
        }, {
          "name" : "x-timer",
          "value" : "S1709069092.410797,VS0,VE1"
        }, {
          "name" : "etag",
          "value" : "W/\"2fa-tCx1sdv4zJmNaBKgVSeqrYHR1fM\""
        }, {
          "name" : "x-cache",
          "value" : "HIT"
        }, {
          "name" : "x-country-code",
          "value" : "US"
        }, {
          "name" : "alt-svc",
          "value" : "h3=\":443\"; ma=86400"
        } ],
        "content" : {
          "size" : 762,
          "mimeType" : "application/json; charset=utf-8",
          "text" : "{\"count\":1302,\"next\":\"https://pokeapi.co/api/v2/pokemon?offset=10&limit=10\",\"previous\":null,\"results\":[{\"name\":\"bulbasaur\",\"url\":\"https://pokeapi.co/api/v2/pokemon/1/\"},{\"name\":\"ivysaur\",\"url\":\"https://pokeapi.co/api/v2/pokemon/2/\"},{\"name\":\"venusaur\",\"url\":\"https://pokeapi.co/api/v2/pokemon/3/\"},{\"name\":\"charmander\",\"url\":\"https://pokeapi.co/api/v2/pokemon/4/\"},{\"name\":\"charmeleon\",\"url\":\"https://pokeapi.co/api/v2/pokemon/5/\"},{\"name\":\"charizard\",\"url\":\"https://pokeapi.co/api/v2/pokemon/6/\"},{\"name\":\"squirtle\",\"url\":\"https://pokeapi.co/api/v2/pokemon/7/\"},{\"name\":\"wartortle\",\"url\":\"https://pokeapi.co/api/v2/pokemon/8/\"},{\"name\":\"blastoise\",\"url\":\"https://pokeapi.co/api/v2/pokemon/9/\"},{\"name\":\"caterpie\",\"url\":\"https://pokeapi.co/api/v2/pokemon/10/\"}]}",
          "comment" : ""
        },
        "redirectURL" : "",
        "headersSize" : 1013,
        "bodySize" : -1,
        "comment" : ""
      },
      "cache" : { },
      "timings" : {
        "comment" : "",
        "connect" : 0,
        "blocked" : -1,
        "wait" : 0,
        "send" : 0,
        "receive" : 0,
        "dns" : -1,
        "ssl" : -1
      },
      "comment" : "",
      "_katalonRequestInformation" : {
        "name" : "3",
        "testObjectId" : "Object Repository/REST/getAllPokemon",
        "harId" : "49ac1310-0ea2-450e-8e25-2a1eb31f4ef6",
        "reportFolder" : null
      },
      "time" : 0
    } ],
    "comment" : ""
  }
}