{
  "log" : {
    "version" : "1.2",
    "pages" : [ ],
    "entries" : [ {
      "startedDateTime" : "2024-05-30T15:28:39.264Z",
      "request" : {
        "method" : "GET",
        "url" : "https://pokeapi.co/api/v2/pokemon?limit=10",
        "httpVersion" : "",
        "cookies" : [ ],
        "headers" : [ ],
        "queryString" : [ {
          "name" : "limit",
          "value" : "10"
        } ],
        "headersSize" : 0,
        "bodySize" : 0,
        "comment" : ""
      },
      "response" : {
        "status" : 200,
        "statusText" : "",
        "httpVersion" : "",
        "cookies" : [ ],
        "headers" : [ {
          "name" : "Server",
          "value" : "cloudflare"
        }, {
          "name" : "function-execution-id",
          "value" : "336jt1yoxqqo"
        }, {
          "name" : "vary",
          "value" : "Accept-Encoding,cookie,need-authorization, x-fh-requested-host, accept-encoding"
        }, {
          "name" : "x-served-by",
          "value" : "cache-mia-kmia1760022-MIA"
        }, {
          "name" : "x-cache-hits",
          "value" : "1"
        }, {
          "name" : "Report-To",
          "value" : "{\"endpoints\":[{\"url\":\"https:\\/\\/a.nel.cloudflare.com\\/report\\/v4?s=K58z4nv%2BFSSx666W52KFXLKIhL66CG22qSNzOiCg0S5RMo3dO%2FFhUge6JyEA0YD2yZt9x0spi5qwuduJx%2FMeGy9n5W%2FrIyIVKwA6AmctallOTX7dN%2FFIQ%2FhlGuGi\"}],\"group\":\"cf-nel\",\"max_age\":604800}"
        }, {
          "name" : "x-cloud-trace-context",
          "value" : "c92061aa949fc9189c27bb05b3af8ba6"
        }, {
          "name" : "x-powered-by",
          "value" : "Express"
        }, {
          "name" : "#status#",
          "value" : "HTTP/1.1 200 OK"
        }, {
          "name" : "Age",
          "value" : "221"
        }, {
          "name" : "Content-Type",
          "value" : "application/json; charset=utf-8"
        }, {
          "name" : "CF-RAY",
          "value" : "88bfc15c38eee6c2-HKG"
        }, {
          "name" : "Connection",
          "value" : "keep-alive"
        }, {
          "name" : "Date",
          "value" : "Thu, 30 May 2024 15:28:40 GMT"
        }, {
          "name" : "strict-transport-security",
          "value" : "max-age=31556926"
        }, {
          "name" : "x-orig-accept-language",
          "value" : "en-US,en;q=0.9"
        }, {
          "name" : "access-control-allow-origin",
          "value" : "*"
        }, {
          "name" : "Accept-Ranges",
          "value" : "bytes"
        }, {
          "name" : "CF-Cache-Status",
          "value" : "HIT"
        }, {
          "name" : "Cache-Control",
          "value" : "public, max-age=86400, s-maxage=86400"
        }, {
          "name" : "NEL",
          "value" : "{\"success_fraction\":0,\"report_to\":\"cf-nel\",\"max_age\":604800}"
        }, {
          "name" : "x-timer",
          "value" : "S1709069092.410797,VS0,VE1"
        }, {
          "name" : "etag",
          "value" : "W/\"2fa-tCx1sdv4zJmNaBKgVSeqrYHR1fM\""
        }, {
          "name" : "x-cache",
          "value" : "HIT"
        }, {
          "name" : "x-country-code",
          "value" : "US"
        }, {
          "name" : "alt-svc",
          "value" : "h3=\":443\"; ma=86400"
        } ],
        "content" : {
          "size" : 762,
          "mimeType" : "application/json; charset=utf-8",
          "text" : "{\"count\":1302,\"next\":\"https://pokeapi.co/api/v2/pokemon?offset=10&limit=10\",\"previous\":null,\"results\":[{\"name\":\"bulbasaur\",\"url\":\"https://pokeapi.co/api/v2/pokemon/1/\"},{\"name\":\"ivysaur\",\"url\":\"https://pokeapi.co/api/v2/pokemon/2/\"},{\"name\":\"venusaur\",\"url\":\"https://pokeapi.co/api/v2/pokemon/3/\"},{\"name\":\"charmander\",\"url\":\"https://pokeapi.co/api/v2/pokemon/4/\"},{\"name\":\"charmeleon\",\"url\":\"https://pokeapi.co/api/v2/pokemon/5/\"},{\"name\":\"charizard\",\"url\":\"https://pokeapi.co/api/v2/pokemon/6/\"},{\"name\":\"squirtle\",\"url\":\"https://pokeapi.co/api/v2/pokemon/7/\"},{\"name\":\"wartortle\",\"url\":\"https://pokeapi.co/api/v2/pokemon/8/\"},{\"name\":\"blastoise\",\"url\":\"https://pokeapi.co/api/v2/pokemon/9/\"},{\"name\":\"caterpie\",\"url\":\"https://pokeapi.co/api/v2/pokemon/10/\"}]}",
          "comment" : ""
        },
        "redirectURL" : "",
        "headersSize" : 1009,
        "bodySize" : -1,
        "comment" : ""
      },
      "cache" : { },
      "timings" : {
        "comment" : "",
        "connect" : 0,
        "blocked" : -1,
        "send" : 0,
        "wait" : 0,
        "receive" : 0,
        "dns" : -1,
        "ssl" : -1
      },
      "comment" : "",
      "_katalonRequestInformation" : {
        "name" : "3",
        "testObjectId" : "Object Repository/REST/getAllPokemon",
        "harId" : "cf820896-dd2a-4e4d-9132-a7ff2331d9c9",
        "reportFolder" : null
      },
      "time" : 0
    } ],
    "comment" : ""
  }
}